<?xml version="1.0" encoding="utf-8"?>
<!-- Generator: Adobe Illustrator 18.0.0, SVG Export Plug-In . SVG Version: 6.00 Build 0)  -->
<!DOCTYPE svg PUBLIC "-//W3C//DTD SVG 1.1//EN" "http://www.w3.org/Graphics/SVG/1.1/DTD/svg11.dtd">
<svg version="1.1"
	 id="svg2" xmlns:osb="http://www.openswatchbook.org/uri/2009/osb" xmlns:dc="http://purl.org/dc/elements/1.1/" xmlns:cc="http://creativecommons.org/ns#" xmlns:rdf="http://www.w3.org/1999/02/22-rdf-syntax-ns#" xmlns:sodipodi="http://sodipodi.sourceforge.net/DTD/sodipodi-0.dtd" xmlns:svg="http://www.w3.org/2000/svg" xmlns:inkscape="http://www.inkscape.org/namespaces/inkscape" inkscape:version="0.48.0 r9654" sodipodi:docname="Like.svg.2011_10_09_19_35_59.0.svg"
	 xmlns="http://www.w3.org/2000/svg" xmlns:xlink="http://www.w3.org/1999/xlink" x="0px" y="0px" viewBox="28 28.5 244 200"
	 enable-background="new 28 28.5 244 200" xml:space="preserve">
<sodipodi:namedview  borderopacity="1" objecttolerance="10" gridtolerance="10" bordercolor="#666666" inkscape:cy="136.09328" inkscape:cx="219.08488" inkscape:zoom="2" guidetolerance="10" showgrid="false" pagecolor="#ffffff" id="namedview4" inkscape:current-layer="svg2" inkscape:window-maximized="1" inkscape:window-y="-8" inkscape:window-x="-8" inkscape:window-height="706" inkscape:window-width="1366" inkscape:pageshadow="2" inkscape:pageopacity="0">
	</sodipodi:namedview>
<path id="path3009" sodipodi:nodetypes="cccccssssscsccccscssc" inkscape:connector-curvature="0" fill="#455C91" stroke="#485C90" d="
	M148.4,36.6l0.4,31.9c-7.6,16.4-22.6,41.5-33.5,50.8l-1.4-1.7l-74.6-0.1c-3.8-0.2-7.9,4.3-7.7,7.3l7.3,95.6c0.2,3.1,3.6,7.1,7.1,7.1
	h66.5c2.6,0,6.2-2.6,6.3-5.8l0.3-8.3c2.2,3.1,8,7.6,13,7.6h89.6c11.2,0,28.5-11.9,22.8-32.1c6.4-5.1,10.2-13.9,6.4-25
	c6.7-5.5,11.6-15.9,6-25.1c17.9-15,6.3-36.1-7.6-36.1h-60.3c2.3-9.9,5.8-19.9,5.6-33.2c-0.2-11.5-7.8-28.2-13.3-37.1
	C179.1,28.7,158.1,21.5,148.4,36.6L148.4,36.6z"/>
<path id="path3764" sodipodi:nodetypes="ccccc" inkscape:connector-curvature="0" fill="#6E7FB3" d="M40.3,126.7h62.9l0.1,92.4h-56
	L40.3,126.7z"/>
<path id="path2994" inkscape:connector-curvature="0" fill="#6475AB" d="M47,139.1h49.8v74.3H53.4L47,139.1z"/>
<path id="path2987" sodipodi:nodetypes="cssccccccccccccccccc" inkscape:connector-curvature="0" fill="#EDF5F7" d="M178.8,111.4
	c2.9-11.6,5-24.4,6.4-36.8c0.3-3,0.3-5.7-0.1-8.2c-1.8-9.9-6-18.8-9.9-27.8c-3.9-3-11.4-4.3-17.1,0.4v31.4
	c-9.5,18.7-20.3,36.6-33.5,53.2l-12.5,8.7v72.6l8.7,0c0,0,11.5,7,12.1,6.7c1,0.5,89.6,0.2,89.6,0.2c4.8,0.1,22.1-12.6,11.1-22.4
	c-1.5-0.9-1.3-3.6,0.1-4.5c6.9-1.2,15.3-14.2,6.5-21c-1.5-1.7-0.4-4.3,1.3-4.4c5.2-2.5,14-10.8,6-20.9c-1.6-0.8-1.7-2.9-0.2-4.2
	c7.8-1.1,17.6-18.7,1.3-23L178.8,111.4z"/>
<path id="path3002" sodipodi:nodetypes="ccccc" inkscape:connector-curvature="0" fill="#DCE4E7" d="M118.3,205v-77.2l-6.4,4.3
	l0,72.8L118.3,205z"/>
<path id="path3000" sodipodi:nodetypes="ccsscccc" inkscape:connector-curvature="0" fill="#DCE4E7" d="M166.4,35.9l7.4,32.1
	l-19.7,35c-2,3.6,0.4,7.3,3.4,7.4l21.4,1c3.3-14.7,7.2-32.7,6.4-43.8c-1.5-7.7-4.6-17.5-10.1-29C172,36.4,169.5,35.9,166.4,35.9z"/>
<path id="path2985" sodipodi:nodetypes="cccccccccsssscccc" inkscape:connector-curvature="0" fill="#DCE4E7" d="M221,111.3
	c7,6.7,2.8,19.2-3.4,23.6c-1.2,0.7-1.4,2.3-0.6,3.4c6.8,7.8-2.2,20.8-5.1,22.2c-0.9,0.8-1.1,1.8-0.9,2.8c7.7,10.8-1.2,19.8-4.3,21.9
	c-1,0.9-1.3,2.5-0.6,4c6.7,10.6-1.1,18.1-5.5,22.8l22,0c4.2,0.2,22-12.7,10.2-22.8c-1.3-1.1-0.5-4.1,0.4-4.2
	c5.8-1,16.1-13.3,6.5-21.2c-0.7-0.5-1.2-3.2,1.3-4.4c7.9-3.5,12.9-12,6.1-20.9c-1.8-1-1.6-3.2-0.2-4.1c13.3-4,13.6-21.5,1.3-23.1
	L221,111.3z"/>
<g id="g3779">
	
		<path id="path3780" sodipodi:open="true" sodipodi:start="6.2585156" sodipodi:end="12.541589" sodipodi:type="arc" sodipodi:cx="66.21273" sodipodi:cy="237.81807" sodipodi:rx="13.828837" sodipodi:ry="13.828837" fill="#FFFFFF" d="
		M93.1,204.1c0.1,3.6-2.8,6.6-6.4,6.6c-3.6,0.1-6.6-2.8-6.6-6.4c-0.1-3.6,2.8-6.6,6.4-6.6C90.1,197.6,93.1,200.5,93.1,204.1"/>
	
		<path id="path3782" sodipodi:open="true" sodipodi:start="6.2585156" sodipodi:end="12.541589" sodipodi:type="arc" sodipodi:cx="68.334961" sodipodi:cy="223.04004" sodipodi:rx="1.0498047" sodipodi:ry="1.0498047" d="
		M86,202.8c0,0.5-0.4,0.8-0.8,0.8c-0.5,0-0.8-0.4-0.8-0.8c0-0.5,0.4-0.8,0.8-0.8C85.6,202,86,202.4,86,202.8"/>
	
		<path id="path3790" sodipodi:open="true" sodipodi:start="6.2585156" sodipodi:end="12.541589" sodipodi:type="arc" sodipodi:cx="68.334961" sodipodi:cy="223.04004" sodipodi:rx="1.0498047" sodipodi:ry="1.0498047" d="
		M88.8,202.8c0,0.5-0.4,0.8-0.8,0.8c-0.5,0-0.8-0.4-0.8-0.8c0-0.5,0.4-0.8,0.8-0.8C88.5,202,88.8,202.4,88.8,202.8"/>
	
		<path id="path3792" sodipodi:open="true" sodipodi:start="6.2585156" sodipodi:end="12.541589" sodipodi:type="arc" sodipodi:cx="68.334961" sodipodi:cy="223.04004" sodipodi:rx="1.0498047" sodipodi:ry="1.0498047" d="
		M88.8,205.7c0,0.5-0.4,0.8-0.8,0.8c-0.5,0-0.8-0.4-0.8-0.8c0-0.5,0.4-0.8,0.8-0.8C88.5,204.9,88.8,205.3,88.8,205.7"/>
	
		<path id="path3794" sodipodi:open="true" sodipodi:start="6.2585156" sodipodi:end="12.541589" sodipodi:type="arc" sodipodi:cx="68.334961" sodipodi:cy="223.04004" sodipodi:rx="1.0498047" sodipodi:ry="1.0498047" d="
		M86,205.7c0,0.5-0.4,0.8-0.8,0.8c-0.5,0-0.8-0.4-0.8-0.8c0-0.5,0.4-0.8,0.8-0.8C85.6,204.9,86,205.3,86,205.7"/>
</g>
</svg>
